{
    "retailer": "laredoute",
    "name": "AFOO",
    "redirect": "",
    "target": "",
    "image": "",
    "format": "AFOO",
    "bid": "B001",
    "oid": "O001",
    "iid": "I001",
    "cid": "C001",
    "main_bid": "",
    "main_oid": "",
    "main_iid": "",
    "main_cid": "",
    "trackurl": "tk.storetail.io",
    "live": true,
    "devPath": "//localhost:8080/dist/",
    "livePath": "",
    "tracking_tp": []
}
